{
"type": "FeatureCollection",
"name": "cobertura_cm5",
"crs": { "type": "name", "properties": { "name": "urn:ogc:def:crs:OGC:1.3:CRS84" } },
"features": [
{ "type": "Feature", "properties": { "OBJECTID": 10, "SHAPE_ID": 261.0, "AREA": 5212125.487, "PERIMETER": 11641.567, "CEN_MUNIC": "Centro Municipal 5", "NOMBRE": "KO'ETI", "Shape_Leng": 11626.425312699999, "Shape_Area": 5221372.8508700002 }, "geometry": { "type": "MultiPolygon", "coordinates": [ [ [ [ -57.616668634517573, -25.28622103387486 ], [ -57.61910508507335, -25.289499358022013 ], [ -57.619458301298472, -25.289976612041965 ], [ -57.619938631969539, -25.290602453607015 ], [ -57.620372559197996, -25.291156190366443 ], [ -57.620869796124865, -25.291812399933345 ], [ -57.621307975849476, -25.29237753115008 ], [ -57.621872618840385, -25.293117167613069 ], [ -57.622272827287162, -25.293621572894754 ], [ -57.62264366184143, -25.294110879376436 ], [ -57.623322012902605, -25.294983211843604 ], [ -57.623899893983697, -25.295760923831399 ], [ -57.624493465668152, -25.294555342687747 ], [ -57.624977693860956, -25.293451023305163 ], [ -57.62521232602483, -25.292873286785522 ], [ -57.625565122100831, -25.291934306319597 ], [ -57.626164335021898, -25.290807227243771 ], [ -57.626869637128003, -25.291737262605636 ], [ -57.627691010641009, -25.29284939851528 ], [ -57.628514768388939, -25.293945931951775 ], [ -57.630180205855808, -25.292990209277491 ], [ -57.630591871032642, -25.293560868910561 ], [ -57.630966724918046, -25.2941174023122 ], [ -57.631488395679177, -25.294868262187435 ], [ -57.631663346331159, -25.295201891041547 ], [ -57.631681321914812, -25.295236563874163 ], [ -57.631743045487106, -25.296182469295871 ], [ -57.631818626136223, -25.296828927534104 ], [ -57.631851601527565, -25.29761674371818 ], [ -57.631885109832403, -25.298114646279785 ], [ -57.63195696017506, -25.298433798863229 ], [ -57.632084210508673, -25.299293440264279 ], [ -57.633152310557627, -25.299127268140264 ], [ -57.634383421680361, -25.298927551874687 ], [ -57.635466025757452, -25.298384835265658 ], [ -57.636964658239307, -25.2975352695466 ], [ -57.639189327676327, -25.296278415104293 ], [ -57.639355406914262, -25.296056765412203 ], [ -57.64016933648815, -25.295601043573146 ], [ -57.641041588595186, -25.295076801456375 ], [ -57.641771164440335, -25.294638931132972 ], [ -57.64250406499216, -25.294215829100928 ], [ -57.643129965924608, -25.293858245746321 ], [ -57.64398900585109, -25.29336153973501 ], [ -57.643474685439863, -25.292584304378259 ], [ -57.642954376923683, -25.291815326138511 ], [ -57.642440012923224, -25.291027107872956 ], [ -57.641934956932026, -25.290285506174079 ], [ -57.641442097752339, -25.289565806004493 ], [ -57.642348780552084, -25.289028570982904 ], [ -57.643138167662627, -25.288592740080738 ], [ -57.644136626417655, -25.288032452235019 ], [ -57.644899471132383, -25.287607470467577 ], [ -57.645559249830505, -25.287244706323705 ], [ -57.646978859019548, -25.286448903208505 ], [ -57.646205988326038, -25.285313103980588 ], [ -57.64544442671108, -25.284236490125309 ], [ -57.644699130686519, -25.283161325234271 ], [ -57.643904827846633, -25.28204222686918 ], [ -57.643169987960768, -25.281000227975277 ], [ -57.642634615511753, -25.280241550943234 ], [ -57.642226967344804, -25.279663885463687 ], [ -57.641737144908809, -25.2789792129368 ], [ -57.641310162913385, -25.278355841080231 ], [ -57.640766065278207, -25.27758456465628 ], [ -57.640127586124073, -25.276695279909209 ], [ -57.639812548964017, -25.276554549230156 ], [ -57.639730887567872, -25.276545429465973 ], [ -57.639644024360067, -25.276537911619286 ], [ -57.639508460378003, -25.276514816932565 ], [ -57.639442202932251, -25.276463001369613 ], [ -57.639425338057691, -25.276400524506567 ], [ -57.639353661217179, -25.276134982009996 ], [ -57.639342432228716, -25.275980302947971 ], [ -57.639327369693412, -25.275647855460939 ], [ -57.639084571466448, -25.275668280909336 ], [ -57.638603156222139, -25.275693613647082 ], [ -57.638057757771762, -25.27570759663363 ], [ -57.637930828075014, -25.275882508804301 ], [ -57.637859685355259, -25.276053741880634 ], [ -57.637598476049924, -25.27609175261022 ], [ -57.637327011123425, -25.275892123471817 ], [ -57.636842867278951, -25.275529491931909 ], [ -57.636293844829609, -25.275547982974718 ], [ -57.635494797815852, -25.276037608281818 ], [ -57.635301434447356, -25.276318388651863 ], [ -57.635327698141381, -25.276531630529263 ], [ -57.635312097575756, -25.276797560791035 ], [ -57.635044955201849, -25.276867185428859 ], [ -57.634845003443139, -25.277013739504415 ], [ -57.634694244987543, -25.277131907799973 ], [ -57.634548868687013, -25.277236780822207 ], [ -57.63436940829223, -25.277220242912293 ], [ -57.634192795527987, -25.277112975850891 ], [ -57.634125031090576, -25.276947233202772 ], [ -57.63395035183904, -25.276906130503257 ], [ -57.633783069498172, -25.276949638681941 ], [ -57.633763500501495, -25.27700732133227 ], [ -57.633784999909111, -25.277078430100168 ], [ -57.633767749631346, -25.277174282424465 ], [ -57.633814638903559, -25.277284966239527 ], [ -57.633713864427072, -25.277350205701236 ], [ -57.63377303791853, -25.277573007894514 ], [ -57.633670543959326, -25.277626198224993 ], [ -57.633547822195048, -25.277614667755575 ], [ -57.633415201826253, -25.277612222715369 ], [ -57.633306341644293, -25.277649594476639 ], [ -57.633244903647345, -25.277695846349843 ], [ -57.633207486220734, -25.27775536012285 ], [ -57.633133021982545, -25.27775042844608 ], [ -57.633060831900252, -25.277725159542808 ], [ -57.633007790241933, -25.277643172499129 ], [ -57.632882567012814, -25.277594758500751 ], [ -57.632755021037909, -25.277568792192852 ], [ -57.63252415674755, -25.277624257818889 ], [ -57.632458016339442, -25.27767791187814 ], [ -57.632356825417709, -25.277768399407719 ], [ -57.632254143424007, -25.277839504081676 ], [ -57.632218789032066, -25.277936525576067 ], [ -57.632219570509122, -25.278087320906117 ], [ -57.632260230669914, -25.278196900395319 ], [ -57.632254316530634, -25.278277260185483 ], [ -57.632195879976919, -25.278361407490682 ], [ -57.6319728721354, -25.278333866383811 ], [ -57.631791701444556, -25.278263884445227 ], [ -57.631721868334274, -25.278172284622318 ], [ -57.631602261755113, -25.278080937540395 ], [ -57.631424617713229, -25.278013110954284 ], [ -57.631258434482106, -25.277973724239693 ], [ -57.631113922701786, -25.277922029228041 ], [ -57.630935574943649, -25.277810410306611 ], [ -57.630466703442373, -25.277605781434836 ], [ -57.63021530363261, -25.277620461393681 ], [ -57.629984596419057, -25.277612166833936 ], [ -57.629781046864849, -25.277539199456342 ], [ -57.629524678851936, -25.277589043068406 ], [ -57.629473820804698, -25.277735567932719 ], [ -57.629432911898469, -25.277840023740413 ], [ -57.62937000833039, -25.277945953189729 ], [ -57.629201313420047, -25.277971151285811 ], [ -57.629035003416782, -25.27793939690029 ], [ -57.628903501192738, -25.277923494059642 ], [ -57.628801848907102, -25.277872811535609 ], [ -57.628698890139404, -25.277845926013249 ], [ -57.628606796201844, -25.277848582262227 ], [ -57.628466174443268, -25.277801216207322 ], [ -57.628308084991808, -25.277752586986828 ], [ -57.628125509169195, -25.277766192825759 ], [ -57.62792948620865, -25.277841299449904 ], [ -57.627837451712757, -25.277805719320543 ], [ -57.627802301726476, -25.277738953548106 ], [ -57.627834770717001, -25.277626746255557 ], [ -57.62777824733238, -25.277444945453432 ], [ -57.627588741812737, -25.277262083850392 ], [ -57.627475115719513, -25.27711040014437 ], [ -57.627486316791618, -25.276983903324314 ], [ -57.627353343278862, -25.276862234872855 ], [ -57.627230724962878, -25.276772828570689 ], [ -57.627272289966058, -25.276607529973486 ], [ -57.62725047775983, -25.276487771097905 ], [ -57.627145089533251, -25.276374008707226 ], [ -57.627008695206882, -25.276242421006906 ], [ -57.626876533897786, -25.276148293199956 ], [ -57.626689213691449, -25.276136532901585 ], [ -57.626480821877088, -25.276191815989325 ], [ -57.626340674209985, -25.276303593282133 ], [ -57.626186482214337, -25.276342514891784 ], [ -57.626000920230481, -25.276355830034486 ], [ -57.625822965766595, -25.276386339094898 ], [ -57.625733720392937, -25.276250946206332 ], [ -57.625569978946714, -25.276183742537793 ], [ -57.625363446015278, -25.276247215789638 ], [ -57.62503849030665, -25.276727342431919 ], [ -57.624791330967305, -25.277015195818329 ], [ -57.624804074599851, -25.27713602746125 ], [ -57.624834753469621, -25.277234796820736 ], [ -57.624677273065856, -25.277230022704405 ], [ -57.624526620686368, -25.277258202197253 ], [ -57.624484780013873, -25.277351983085698 ], [ -57.624455124331902, -25.277439673765123 ], [ -57.62435269779693, -25.277517119402916 ], [ -57.624304908833196, -25.277643922528416 ], [ -57.624281608027218, -25.277786469512122 ], [ -57.624264328293656, -25.277967910282729 ], [ -57.624265102106975, -25.278121846610308 ], [ -57.624108647678867, -25.278199415877371 ], [ -57.623879593041771, -25.278359841627477 ], [ -57.623704556635609, -25.278443104140557 ], [ -57.623517583306217, -25.278504324889948 ], [ -57.623330407093995, -25.278499636001648 ], [ -57.622839803694141, -25.278332263597608 ], [ -57.622687655157847, -25.278156020696745 ], [ -57.622476032129029, -25.27810756232245 ], [ -57.622331418230466, -25.278185095126659 ], [ -57.622259424185835, -25.278423953324047 ], [ -57.62221314693258, -25.278640642656228 ], [ -57.622183675498206, -25.278856362585888 ], [ -57.621977944515834, -25.278885516737869 ], [ -57.621694914072187, -25.278598469498547 ], [ -57.621147252759364, -25.27799874610211 ], [ -57.620699215989376, -25.27752966899137 ], [ -57.620550804188738, -25.277196878480968 ], [ -57.6205641159655, -25.276872575492764 ], [ -57.620533283160086, -25.276610453733849 ], [ -57.620517422273444, -25.2763837883425 ], [ -57.620442503307046, -25.276090575961504 ], [ -57.620192749941587, -25.275958161616 ], [ -57.619958104011417, -25.276079385734551 ], [ -57.619810641343001, -25.27586639150995 ], [ -57.619515867573739, -25.275561093487816 ], [ -57.618957336134571, -25.275323242365129 ], [ -57.618649767063985, -25.275324532006486 ], [ -57.618462938843997, -25.275462165663907 ], [ -57.61795983882336, -25.275872597155068 ], [ -57.616835637802843, -25.277608537508762 ], [ -57.616545869833125, -25.278062228428038 ], [ -57.616342367221961, -25.278509475611521 ], [ -57.616200616021388, -25.278677615275612 ], [ -57.616057034110057, -25.278856011070243 ], [ -57.616014347799613, -25.278955436279528 ], [ -57.61600311457989, -25.279058480511843 ], [ -57.615995570311846, -25.279174547460574 ], [ -57.616027524526935, -25.279272070812613 ], [ -57.616018804008242, -25.279323958974491 ], [ -57.616008265926745, -25.279386666842431 ], [ -57.615987326753789, -25.27948296432411 ], [ -57.615973125720807, -25.279625337569087 ], [ -57.615940022808644, -25.279679964385203 ], [ -57.61589060394293, -25.279808461284524 ], [ -57.615822048508839, -25.280092521950529 ], [ -57.616017385694853, -25.281619902242557 ], [ -57.616098046915724, -25.28211178628618 ], [ -57.616668634517573, -25.28622103387486 ] ] ] ] } }
]
}
