<!DOCTYPE svg PUBLIC "-//W3C//DTD SVG 1.1//EN" "http://www.w3.org/Graphics/SVG/1.1/DTD/svg11.dtd" [
	<!ENTITY ns_extend "http://ns.adobe.com/Extensibility/1.0/">
	<!ENTITY ns_ai "http://ns.adobe.com/AdobeIllustrator/10.0/">
	<!ENTITY ns_graphs "http://ns.adobe.com/Graphs/1.0/">
]>
<svg version="1.1" id="Capa_1" xmlns:x="&ns_extend;" xmlns:i="&ns_ai;" xmlns:graph="&ns_graphs;"
	 xmlns="http://www.w3.org/2000/svg" xmlns:xlink="http://www.w3.org/1999/xlink" x="0px" y="0px" width="113.39px"
	 height="113.39px" viewBox="0 0 113.39 113.39" enable-background="new 0 0 113.39 113.39" xml:space="preserve">
<switch>
	<foreignObject requiredExtensions="&ns_ai;" x="0" y="0" width="1" height="1">
		<i:pgfRef  xlink:href="#adobe_illustrator_pgf">
		</i:pgfRef>
	</foreignObject>
	<g i:extraneous="self">
		<path fill-rule="evenodd" clip-rule="evenodd" fill="#B2B2B2" d="M56.695,2.835c-29.745,0-53.858,24.116-53.858,53.858
			c0,29.745,24.113,53.861,53.858,53.861s53.857-24.116,53.857-53.861C110.553,26.951,86.44,2.835,56.695,2.835z M24.155,35.566
			h65.079c1.368,0,1.539,0.594,0.38,1.319L58.802,56.19c-1.159,0.731-3.055,0.731-4.214,0L23.775,36.885
			C22.616,36.16,22.788,35.566,24.155,35.566z M93.982,75.34c0,1.37-1.119,2.489-2.487,2.489H21.895
			c-1.367,0-2.486-1.119-2.486-2.489V41.815c0-1.359,0.947-1.887,2.106-1.165l33.073,20.725c1.159,0.73,3.055,0.73,4.214,0
			L91.875,40.65c1.159-0.723,2.107-0.194,2.107,1.165V75.34z"/>
	</g>
</switch>
</svg>
