<!DOCTYPE svg PUBLIC "-//W3C//DTD SVG 1.1//EN" "http://www.w3.org/Graphics/SVG/1.1/DTD/svg11.dtd" [
	<!ENTITY ns_extend "http://ns.adobe.com/Extensibility/1.0/">
	<!ENTITY ns_ai "http://ns.adobe.com/AdobeIllustrator/10.0/">
	<!ENTITY ns_graphs "http://ns.adobe.com/Graphs/1.0/">
]>
<svg version="1.1" id="Capa_1" xmlns:x="&ns_extend;" xmlns:i="&ns_ai;" xmlns:graph="&ns_graphs;"
	 xmlns="http://www.w3.org/2000/svg" xmlns:xlink="http://www.w3.org/1999/xlink" x="0px" y="0px" width="113.39px"
	 height="113.39px" viewBox="0 0 113.39 113.39" enable-background="new 0 0 113.39 113.39" xml:space="preserve">
<switch>
	<foreignObject requiredExtensions="&ns_ai;" x="0" y="0" width="1" height="1">
		<i:pgfRef  xlink:href="#adobe_illustrator_pgf">
		</i:pgfRef>
	</foreignObject>
	<g i:extraneous="self">
		<path fill-rule="evenodd" clip-rule="evenodd" fill="#B2B2B2" d="M56.695,2.837c-29.745,0-53.858,24.11-53.858,53.855
			c0,29.751,24.113,53.86,53.858,53.86s53.857-24.109,53.857-53.86C110.553,26.947,86.44,2.837,56.695,2.837z M88.21,82.681
			c-0.971,1.941-2.695,3.151-4.539,4.173c-2.277,1.263-4.688,2.21-7.262,2.655c-1.137,0.194-2.301,0.229-3.454,0.331
			c-2.752-0.183-5.327-0.999-7.845-1.964c-2.688-1.027-5.372-2.09-7.987-3.277c-3.354-1.524-6.38-3.608-9.295-5.852
			c-3.904-3.015-7.43-6.429-10.679-10.123c-2.832-3.226-5.355-6.674-7.413-10.447c-2.401-4.407-4.128-9.084-5.507-13.891
			c-1.079-3.763-0.785-7.479,0.662-11.104c0.785-1.97,1.573-3.951,2.991-5.556c0.809-0.919,1.71-1.85,2.755-2.432
			c2.107-1.171,4.459-1.621,6.874-1.645c0.763-0.006,1.382,0.251,1.796,0.937c1.088,1.81,2.206,3.603,3.269,5.424
			c1.45,2.489,2.835,5.013,4.29,7.49c1.108,1.89,1.091,2.884-0.479,4.362c-1.612,1.519-3.362,2.889-5.016,4.367
			c-0.665,0.594-1.27,1.268-1.832,1.964c-0.571,0.708-0.389,1.53-0.052,2.261c0.463,1.005,0.953,2.01,1.564,2.93
			c1.764,2.654,3.479,5.36,5.427,7.884c2.666,3.448,5.963,6.28,9.617,8.655c1.921,1.256,3.888,2.455,5.889,3.574
			c2.167,1.21,2.932,1.039,4.616-0.811c1.616-1.776,3.194-3.586,4.802-5.373c0.263-0.297,0.576-0.548,0.879-0.799
			c0.934-0.771,1.927-0.925,3.003-0.291c2.443,1.416,4.887,2.831,7.331,4.247c2.032,1.182,4.056,2.375,6.089,3.552
			c0.753,0.439,1.124,1.062,1.11,1.946C89.774,78.256,89.277,80.557,88.21,82.681z"/>
	</g>
</switch>
</svg>
